{
  "files": {
    "main.css": "/static/css/main.5f361e03.chunk.css",
    "main.js": "/static/js/main.de9e0427.chunk.js",
    "main.js.map": "/static/js/main.de9e0427.chunk.js.map",
    "runtime-main.js": "/static/js/runtime-main.243fc4db.js",
    "runtime-main.js.map": "/static/js/runtime-main.243fc4db.js.map",
    "static/js/2.4647da65.chunk.js": "/static/js/2.4647da65.chunk.js",
    "static/js/2.4647da65.chunk.js.map": "/static/js/2.4647da65.chunk.js.map",
    "index.html": "/index.html",
    "precache-manifest.941276a0c100091e60d87728c06a8976.js": "/precache-manifest.941276a0c100091e60d87728c06a8976.js",
    "service-worker.js": "/service-worker.js",
    "static/css/main.5f361e03.chunk.css.map": "/static/css/main.5f361e03.chunk.css.map",
    "static/js/2.4647da65.chunk.js.LICENSE.txt": "/static/js/2.4647da65.chunk.js.LICENSE.txt",
    "static/media/logo.svg": "/static/media/logo.5d5d9eef.svg"
  },
  "entrypoints": [
    "static/js/runtime-main.243fc4db.js",
    "static/js/2.4647da65.chunk.js",
    "static/css/main.5f361e03.chunk.css",
    "static/js/main.de9e0427.chunk.js"
  ]
}